(footprint "DIN41612_B_2x32_Male_Horizontal_THT" (version 20211014) (generator pcbnew)
  (layer "F.Cu")
  (tedit 645DC637)
  (descr "DIN41612 connector, type B, Horizontal, 2 rows 32 pins wide, https://www.erni-x-press.com/de/downloads/kataloge/englische_kataloge/erni-din41612-iec60603-2-e.pdf")
  (tags "DIN 41612 IEC 60603 B")
  (attr through_hole)
  (fp_text reference "REF**" (at -5.08 1) (layer "F.SilkS")
    (effects (font (size 1 1) (thickness 0.15)))
    (tstamp 8edaacea-75ec-4556-bf0c-a601c4d4fa48)
  )
  (fp_text value "DIN41612_B_2x32_Male_Horizontal_THT" (at 39.37 5.08) (layer "F.Fab")
    (effects (font (size 1 1) (thickness 0.15)))
    (tstamp 0f48ac12-b296-4cbd-9aab-b64f2c92a1e4)
  )
  (fp_text user "Board edge" (at 39.37 -7.3) (layer "Cmts.User")
    (effects (font (size 0.7 0.7) (thickness 0.1)))
    (tstamp 7bdca2e5-8ebe-4cb9-b5a0-7e7a43262b51)
  )
  (fp_text user "${REFERENCE}" (at 39.37 -2.54) (layer "F.Fab")
    (effects (font (size 1 1) (thickness 0.15)))
    (tstamp 4f4ca638-a15a-478a-8841-d29abb4ccbdb)
  )
  (fp_line (start 13.57 -0.74) (end 14.371 -0.74) (layer "F.SilkS") (width 0.12) (tstamp 009036a1-ce51-46c1-92b6-5679d6d2f75a))
  (fp_line (start 36.43 -0.74) (end 37.231 -0.74) (layer "F.SilkS") (width 0.12) (tstamp 00cbdec0-1c4e-437d-ac20-800013672c24))
  (fp_line (start 16.11 -0.74) (end 16.911 -0.74) (layer "F.SilkS") (width 0.12) (tstamp 093ddb2e-ca36-48ef-b077-0fea30cbbc6f))
  (fp_line (start -1.095 0) (end -1.695 -0.3) (layer "F.SilkS") (width 0.12) (tstamp 12aa699e-5295-4c79-ad0d-5ef35448666e))
  (fp_line (start -2.371 -0.74) (end -1.095 -0.74) (layer "F.SilkS") (width 0.12) (tstamp 1360a696-810f-4d6a-b122-0dcebf3c3ed9))
  (fp_line (start -2.37 0.26) (end -2.37 -0.74) (layer "F.SilkS") (width 0.12) (tstamp 1b50441d-72aa-4b82-8e5e-e6fd1bb3edfc))
  (fp_line (start 59.29 -0.74) (end 60.091 -0.74) (layer "F.SilkS") (width 0.12) (tstamp 250852eb-8080-4dec-925a-d6a56953c988))
  (fp_line (start 5.95 -0.74) (end 6.751 -0.74) (layer "F.SilkS") (width 0.12) (tstamp 258fdeb2-058e-4f4f-a486-26de8dbe646c))
  (fp_line (start 18.65 -0.74) (end 19.451 -0.74) (layer "F.SilkS") (width 0.12) (tstamp 25de5f73-9cee-44af-b51a-312f48feaa88))
  (fp_line (start 56.75 -0.74) (end 57.551 -0.74) (layer "F.SilkS") (width 0.12) (tstamp 2bb01f1a-9e59-48b2-9335-8452c03b9389))
  (fp_line (start -7.89 0.26) (end -2.37 0.26) (layer "F.SilkS") (width 0.12) (tstamp 30a9ab44-4d52-4b12-8550-d844d659703a))
  (fp_line (start 1.095 -0.74) (end 1.671 -0.74) (layer "F.SilkS") (width 0.12) (tstamp 4329fcb2-30e3-4107-9205-8cda36ca6366))
  (fp_line (start 51.67 -0.74) (end 52.471 -0.74) (layer "F.SilkS") (width 0.12) (tstamp 47532a03-7328-4b7f-ba16-92025f9fe206))
  (fp_line (start 41.51 -0.74) (end 42.311 -0.74) (layer "F.SilkS") (width 0.12) (tstamp 5ba0a6f8-c30e-4096-a6e0-55e08d060b32))
  (fp_line (start 69.45 -0.74) (end 70.251 -0.74) (layer "F.SilkS") (width 0.12) (tstamp 5dcbc661-8f72-4510-84e6-5e543d184ab0))
  (fp_line (start 79.61 -0.74) (end 81.11 -0.74) (layer "F.SilkS") (width 0.12) (tstamp 62662991-772f-4b0f-90b1-083f1ae8ca79))
  (fp_line (start 33.89 -0.74) (end 34.691 -0.74) (layer "F.SilkS") (width 0.12) (tstamp 6758f7cf-1337-4d97-b2d9-4c662abb8da7))
  (fp_line (start 61.83 -0.74) (end 62.631 -0.74) (layer "F.SilkS") (width 0.12) (tstamp 67ed470a-0d7b-412f-80fd-cd456c304499))
  (fp_line (start -1.695 -0.3) (end -1.695 0.3) (layer "F.SilkS") (width 0.12) (tstamp 841a4013-70f3-4cf7-bf70-dfe186487399))
  (fp_line (start 38.97 -0.74) (end 39.771 -0.74) (layer "F.SilkS") (width 0.12) (tstamp 8627962f-bac4-42ad-b5fd-f1cda6bb5fc9))
  (fp_line (start 71.99 -0.74) (end 72.791 -0.74) (layer "F.SilkS") (width 0.12) (tstamp 8b0ffb47-bd28-486d-bb0b-ffbc7850a62c))
  (fp_line (start 46.59 -0.74) (end 47.391 -0.74) (layer "F.SilkS") (width 0.12) (tstamp 950aa066-87b0-45ea-a074-b3983b9b0085))
  (fp_line (start 64.37 -0.74) (end 65.171 -0.74) (layer "F.SilkS") (width 0.12) (tstamp 95d4af38-5969-46f2-95d6-d84f9451051a))
  (fp_line (start 81.11 0.26) (end 81.11 -0.74) (layer "F.SilkS") (width 0.12) (tstamp a0637998-0dde-4ab1-91aa-9049cb1cbb66))
  (fp_line (start 86.63 -5.3) (end 86.63 0.26) (layer "F.SilkS") (width 0.12) (tstamp a63f7277-2e6f-40ce-b9aa-04d8e1b037cb))
  (fp_line (start 21.19 -0.74) (end 21.991 -0.74) (layer "F.SilkS") (width 0.12) (tstamp a904dd3e-8e76-46af-aaab-4310a4a569b8))
  (fp_line (start 23.73 -0.74) (end 24.531 -0.74) (layer "F.SilkS") (width 0.12) (tstamp ab329aac-1413-40e9-aed9-5ae6bae3d53e))
  (fp_line (start 31.35 -0.74) (end 32.151 -0.74) (layer "F.SilkS") (width 0.12) (tstamp b0d7b3ee-c2f4-4f55-8926-38fc5b5710af))
  (fp_line (start 11.03 -0.74) (end 11.831 -0.74) (layer "F.SilkS") (width 0.12) (tstamp b35a538c-bcdc-416a-9c64-04a2bc44dfbb))
  (fp_line (start 54.21 -0.74) (end 55.011 -0.74) (layer "F.SilkS") (width 0.12) (tstamp b66eed20-1f35-4a0b-8c1c-70f68d66aafe))
  (fp_line (start -1.695 0.3) (end -1.095 0) (layer "F.SilkS") (width 0.12) (tstamp b6ede797-af4f-4d5c-a5db-498008faa2ec))
  (fp_line (start 49.13 -0.74) (end 49.931 -0.74) (layer "F.SilkS") (width 0.12) (tstamp c6a91957-f76e-4125-b3fa-ac14db86eaa0))
  (fp_line (start 26.27 -0.74) (end 27.071 -0.74) (layer "F.SilkS") (width 0.12) (tstamp d4958738-7aa4-4669-a10d-e29a7a8f252b))
  (fp_line (start 8.49 -0.74) (end 9.291 -0.74) (layer "F.SilkS") (width 0.12) (tstamp dad825f6-8ba4-473a-8c4e-3af77289245e))
  (fp_line (start 74.53 -0.74) (end 75.331 -0.74) (layer "F.SilkS") (width 0.12) (tstamp dcecbdce-507c-43f3-8c81-28d8eaee8144))
  (fp_line (start 44.05 -0.74) (end 44.851 -0.74) (layer "F.SilkS") (width 0.12) (tstamp e57de215-26d2-4a2e-927f-d4ad4e99a65b))
  (fp_line (start 28.81 -0.74) (end 29.611 -0.74) (layer "F.SilkS") (width 0.12) (tstamp e5ba1245-a2e1-4fba-81f2-79da6eaffd30))
  (fp_line (start -7.89 -5.3) (end -7.89 0.26) (layer "F.SilkS") (width 0.12) (tstamp e6c808e4-c455-4891-9ca7-0318ef05f629))
  (fp_line (start 3.41 -0.74) (end 4.211 -0.74) (layer "F.SilkS") (width 0.12) (tstamp e74eff29-b6df-480b-a3d1-75ec20f7fe3f))
  (fp_line (start 77.07 -0.74) (end 77.871 -0.74) (layer "F.SilkS") (width 0.12) (tstamp efa35eaf-a02d-4196-97bd-1085ddf99c66))
  (fp_line (start 66.91 -0.74) (end 67.711 -0.74) (layer "F.SilkS") (width 0.12) (tstamp f489e303-c352-40ed-90ae-3a94671728fb))
  (fp_line (start 86.63 0.26) (end 81.11 0.26) (layer "F.SilkS") (width 0.12) (tstamp f929ae43-cfcf-42dc-84f2-6385aee1f176))
  (fp_line (start -7.63 -5.3) (end 86.37 -5.3) (layer "Dwgs.User") (width 0.08) (tstamp 28a53a44-1c62-43b6-a67e-64dae53ce179))
  (fp_line (start 39.37 -5.4) (end 39.57 -5.9) (layer "Cmts.User") (width 0.1) (tstamp 1aebda98-1460-4a82-8807-3991063705ef))
  (fp_line (start 39.17 -5.9) (end 39.37 -5.4) (layer "Cmts.User") (width 0.1) (tstamp 23dc8fc6-b714-4730-9e89-a0bc021efe11))
  (fp_line (start 39.37 -5.4) (end 39.37 -6.7) (layer "Cmts.User") (width 0.1) (tstamp cc594d2e-cbc8-40b9-96cb-c10b053fb38f))
  (fp_line (start 80.02 3.82) (end 80.02 0.5) (layer "F.CrtYd") (width 0.05) (tstamp 2b751b24-a70e-4a92-ad47-41479072c57d))
  (fp_line (start 86.87 0.5) (end 86.87 -13.23) (layer "F.CrtYd") (width 0.05) (tstamp 5000893e-02ab-45db-9c58-e8a47ff9a81d))
  (fp_line (start -8.13 0.5) (end -1.27 0.5) (layer "F.CrtYd") (width 0.05) (tstamp 5ab86d09-8f35-4d87-9879-10c5953174d7))
  (fp_line (start -8.13 -13.23) (end -8.13 0.5) (layer "F.CrtYd") (width 0.05) (tstamp 64f572b0-80b7-46af-a861-a1f8d79adc48))
  (fp_line (start -1.27 3.82) (end 80.02 3.82) (layer "F.CrtYd") (width 0.05) (tstamp 67940200-505d-4928-baa0-aac64a96cba2))
  (fp_line (start 86.87 -13.23) (end -8.13 -13.23) (layer "F.CrtYd") (width 0.05) (tstamp bb973bee-898a-4e14-947b-716b6e3f2793))
  (fp_line (start -1.27 0.5) (end -1.27 3.82) (layer "F.CrtYd") (width 0.05) (tstamp dd218ece-02ee-4aba-886f-8ca61e581071))
  (fp_line (start 80.02 0.5) (end 86.87 0.5) (layer "F.CrtYd") (width 0.05) (tstamp e5313f7b-8fd3-4645-b35a-bd366cee7b82))
  (fp_line (start -2.63 0) (end -2.63 -1) (layer "F.Fab") (width 0.1) (tstamp 1bb7dee5-2ba9-4923-878f-b5975a7418a7))
  (fp_line (start 86.37 0) (end 86.37 -6.74) (layer "F.Fab") (width 0.1) (tstamp 29cead45-1bea-49be-8c48-57935452ec96))
  (fp_line (start 86.37 -6.74) (end 83.12 -6.74) (layer "F.Fab") (width 0.1) (tstamp 32db197a-850c-4bac-9606-5d65b9ed7a28))
  (fp_line (start -7.63 -6.74) (end -7.63 0) (layer "F.Fab") (width 0.1) (tstamp 39f5b0de-4ca6-46f9-94fb-9529ae6b886f))
  (fp_line (start 0.5 -1.9) (end 0 -1.2) (layer "F.Fab") (width 0.1) (tstamp 4ecf8623-4692-4462-b2a0-eb3d5e5f3965))
  (fp_line (start 83.12 -12.74) (end -4.38 -12.74) (layer "F.Fab") (width 0.1) (tstamp 65210821-6937-4a49-b856-f148c6a72f35))
  (fp_line (start 0 -1.2) (end -0.5 -1.9) (layer "F.Fab") (width 0.1) (tstamp 7808fa8f-4270-411f-8fb9-15068cb1377a))
  (fp_line (start -4.38 -12.74) (end -4.38 -6.74) (layer "F.Fab") (width 0.1) (tstamp 7f3f0131-d052-4aaf-8c5f-90e3d807ff13))
  (fp_line (start 81.37 0) (end 86.37 0) (layer "F.Fab") (width 0.1) (tstamp 861d412e-3f9c-41c3-ac36-e06c8cfac47f))
  (fp_line (start 81.37 -1) (end 81.37 0) (layer "F.Fab") (width 0.1) (tstamp 9f565859-6ec5-48af-acfc-d40af11d903d))
  (fp_line (start -2.63 -1) (end 81.37 -1) (layer "F.Fab") (width 0.1) (tstamp a0c83e16-5578-4de8-b62b-b87b820fa9f9))
  (fp_line (start -4.38 -6.74) (end -7.63 -6.74) (layer "F.Fab") (width 0.1) (tstamp db22f0e0-e97b-4efa-9c7b-c84321422472))
  (fp_line (start 83.12 -6.74) (end 83.12 -12.74) (layer "F.Fab") (width 0.1) (tstamp e6116398-0095-48e0-925c-ed9ae74e61ab))
  (fp_line (start -7.63 0) (end -2.63 0) (layer "F.Fab") (width 0.1) (tstamp ef3c22e4-dbea-4915-88bd-795cd3053e00))
  (fp_line (start -0.5 -1.9) (end 0.5 -1.9) (layer "F.Fab") (width 0.1) (tstamp f69e2352-5102-461e-96b7-46ee3113829a))
  (pad "" np_thru_hole circle (at -5.08 -2.54) (size 2.85 2.85) (drill 2.85) (layers *.Cu *.Mask) (tstamp 750eb07c-98a5-49b7-a1b1-f59b3a244028))
  (pad "" np_thru_hole circle (at 83.82 -2.54) (size 2.85 2.85) (drill 2.85) (layers *.Cu *.Mask) (tstamp acd17a65-42d9-4ca4-b462-9f26e679c200))
  (pad "a1" thru_hole roundrect (at 0 0) (size 1.55 1.55) (drill 1) (layers *.Cu *.Mask) (roundrect_rratio 0.16129) (tstamp 041c60e6-29e6-4c76-8b0e-92a8d0309cd8))
  (pad "a2" thru_hole circle (at 2.54 0) (size 1.55 1.55) (drill 1) (layers *.Cu *.Mask) (tstamp 948a96da-c2ba-46b8-bebb-c79208d4355e))
  (pad "a3" thru_hole circle (at 5.08 0) (size 1.55 1.55) (drill 1) (layers *.Cu *.Mask) (tstamp 95c1540a-d73d-4925-80ee-db6ec5331628))
  (pad "a4" thru_hole circle (at 7.62 0) (size 1.55 1.55) (drill 1) (layers *.Cu *.Mask) (tstamp 35225955-41b7-4d35-8cb5-898c437dfb7a))
  (pad "a5" thru_hole circle (at 10.16 0) (size 1.55 1.55) (drill 1) (layers *.Cu *.Mask) (tstamp 1ea94aa9-f45b-4e4a-8591-67563039ae7b))
  (pad "a6" thru_hole circle (at 12.7 0) (size 1.55 1.55) (drill 1) (layers *.Cu *.Mask) (tstamp 60fe35df-0843-47d3-bce5-283b9ef2f94f))
  (pad "a7" thru_hole circle (at 15.24 0) (size 1.55 1.55) (drill 1) (layers *.Cu *.Mask) (tstamp 6a1593bd-4f3c-4d65-bc75-e1f8daa86c40))
  (pad "a8" thru_hole circle (at 17.78 0) (size 1.55 1.55) (drill 1) (layers *.Cu *.Mask) (tstamp 90fb211e-0591-4188-a851-dc7b77770c86))
  (pad "a9" thru_hole circle (at 20.32 0) (size 1.55 1.55) (drill 1) (layers *.Cu *.Mask) (tstamp e1362049-8707-4d34-a6d3-5796f363a3d8))
  (pad "a10" thru_hole circle (at 22.86 0) (size 1.55 1.55) (drill 1) (layers *.Cu *.Mask) (tstamp b8e8edc7-510e-4e1e-b02b-a18b8228e4ea))
  (pad "a11" thru_hole circle (at 25.4 0) (size 1.55 1.55) (drill 1) (layers *.Cu *.Mask) (tstamp 80890f4a-79f6-4818-8216-b65d5224a0ce))
  (pad "a12" thru_hole circle (at 27.94 0) (size 1.55 1.55) (drill 1) (layers *.Cu *.Mask) (tstamp 2ece4dde-8b55-4cef-a7c3-ac19532f2872))
  (pad "a13" thru_hole circle (at 30.48 0) (size 1.55 1.55) (drill 1) (layers *.Cu *.Mask) (tstamp c5b46e19-c6c3-4549-8ece-247b97bab30e))
  (pad "a14" thru_hole circle (at 33.02 0) (size 1.55 1.55) (drill 1) (layers *.Cu *.Mask) (tstamp 3b00817f-d0eb-4758-b173-19ea3fee0820))
  (pad "a15" thru_hole circle (at 35.56 0) (size 1.55 1.55) (drill 1) (layers *.Cu *.Mask) (tstamp 894ebb6d-561e-4a19-816a-630838309fc4))
  (pad "a16" thru_hole circle (at 38.1 0) (size 1.55 1.55) (drill 1) (layers *.Cu *.Mask) (tstamp 0c1721ac-3e40-439d-982b-02657615de1d))
  (pad "a17" thru_hole circle (at 40.64 0) (size 1.55 1.55) (drill 1) (layers *.Cu *.Mask) (tstamp 74d43e3e-a3d7-46a4-81dc-0da4f83b3ddf))
  (pad "a18" thru_hole circle (at 43.18 0) (size 1.55 1.55) (drill 1) (layers *.Cu *.Mask) (tstamp 9c1f3692-3640-4d5f-ae8c-4ad13bc31c09))
  (pad "a19" thru_hole circle (at 45.72 0) (size 1.55 1.55) (drill 1) (layers *.Cu *.Mask) (tstamp 6925931f-2aa9-4979-aef6-fc4d609ff2b2))
  (pad "a20" thru_hole circle (at 48.26 0) (size 1.55 1.55) (drill 1) (layers *.Cu *.Mask) (tstamp 6d10c0da-5455-4903-99bd-08ed8d701616))
  (pad "a21" thru_hole circle (at 50.8 0) (size 1.55 1.55) (drill 1) (layers *.Cu *.Mask) (tstamp bf185951-2e71-4c04-b64e-490fec0dff11))
  (pad "a22" thru_hole circle (at 53.34 0) (size 1.55 1.55) (drill 1) (layers *.Cu *.Mask) (tstamp 364f6ac0-e4e2-4d63-a366-3717d5d2b61c))
  (pad "a23" thru_hole circle (at 55.88 0) (size 1.55 1.55) (drill 1) (layers *.Cu *.Mask) (tstamp 849fd71b-cc3b-4a91-a7c9-9f605b63d517))
  (pad "a24" thru_hole circle (at 58.42 0) (size 1.55 1.55) (drill 1) (layers *.Cu *.Mask) (tstamp 705061ad-f72a-48ba-92c8-ed60a28c53ef))
  (pad "a25" thru_hole circle (at 60.96 0) (size 1.55 1.55) (drill 1) (layers *.Cu *.Mask) (tstamp 1d400f71-3ce5-404e-809d-e9cb7a324c0e))
  (pad "a26" thru_hole circle (at 63.5 0) (size 1.55 1.55) (drill 1) (layers *.Cu *.Mask) (tstamp d981e735-ae9f-4a10-ad59-5579e72d8c58))
  (pad "a27" thru_hole circle (at 66.04 0) (size 1.55 1.55) (drill 1) (layers *.Cu *.Mask) (tstamp 837eee9e-2954-4396-9726-e34d58b2bb18))
  (pad "a28" thru_hole circle (at 68.58 0) (size 1.55 1.55) (drill 1) (layers *.Cu *.Mask) (tstamp 1996ebe2-a030-453b-9a7f-5fbca6b42172))
  (pad "a29" thru_hole circle (at 71.12 0) (size 1.55 1.55) (drill 1) (layers *.Cu *.Mask) (tstamp 16f763c3-9858-4434-9004-89e2eaaae9e5))
  (pad "a30" thru_hole circle (at 73.66 0) (size 1.55 1.55) (drill 1) (layers *.Cu *.Mask) (tstamp b8fdd34d-e507-4a3f-8962-4d4b934cff65))
  (pad "a31" thru_hole circle (at 76.2 0) (size 1.55 1.55) (drill 1) (layers *.Cu *.Mask) (tstamp 411ad739-5924-472c-a3ae-d4e9f90b79a5))
  (pad "a32" thru_hole circle (at 78.74 0) (size 1.55 1.55) (drill 1) (layers *.Cu *.Mask) (tstamp a864f73c-1b9a-4001-a83a-b7d642ee18e7))
  (pad "b1" thru_hole circle (at 0 2.54) (size 1.55 1.55) (drill 1) (layers *.Cu *.Mask) (tstamp 1c3c15d1-8708-42cf-bc7d-03e7153a9fdc))
  (pad "b2" thru_hole circle (at 2.54 2.54) (size 1.55 1.55) (drill 1) (layers *.Cu *.Mask) (tstamp d1681850-38b7-4ce5-8591-65cc5f82c628))
  (pad "b3" thru_hole circle (at 5.08 2.54) (size 1.55 1.55) (drill 1) (layers *.Cu *.Mask) (tstamp d55172e8-e875-4b85-b139-9c2854aac8c5))
  (pad "b4" thru_hole circle (at 7.62 2.54) (size 1.55 1.55) (drill 1) (layers *.Cu *.Mask) (tstamp 31b4bfba-09a7-43b6-a73d-231f07824b2a))
  (pad "b5" thru_hole circle (at 10.16 2.54) (size 1.55 1.55) (drill 1) (layers *.Cu *.Mask) (tstamp 0833653c-a305-4dfb-9f34-dfcc3ec6e01e))
  (pad "b6" thru_hole circle (at 12.7 2.54) (size 1.55 1.55) (drill 1) (layers *.Cu *.Mask) (tstamp 9b7e433b-d2ea-427b-aa88-5d163f7c3be5))
  (pad "b7" thru_hole circle (at 15.24 2.54) (size 1.55 1.55) (drill 1) (layers *.Cu *.Mask) (tstamp f78e422e-1b35-4d6b-b1dd-d08dcb59a819))
  (pad "b8" thru_hole circle (at 17.78 2.54) (size 1.55 1.55) (drill 1) (layers *.Cu *.Mask) (tstamp a19f0301-3352-4a3e-9249-a2a59775e7b9))
  (pad "b9" thru_hole circle (at 20.32 2.54) (size 1.55 1.55) (drill 1) (layers *.Cu *.Mask) (tstamp 3e80e321-f37b-438e-bfd3-7798b18dd82e))
  (pad "b10" thru_hole circle (at 22.86 2.54) (size 1.55 1.55) (drill 1) (layers *.Cu *.Mask) (tstamp fe8c56a0-4f81-4afe-ad90-b997c3227bea))
  (pad "b11" thru_hole circle (at 25.4 2.54) (size 1.55 1.55) (drill 1) (layers *.Cu *.Mask) (tstamp ee5dad20-2efa-456a-8af7-9bd62a4a2a23))
  (pad "b12" thru_hole circle (at 27.94 2.54) (size 1.55 1.55) (drill 1) (layers *.Cu *.Mask) (tstamp c60e7c2e-3269-4c47-a99f-d4f4e446f0b4))
  (pad "b13" thru_hole circle (at 30.48 2.54) (size 1.55 1.55) (drill 1) (layers *.Cu *.Mask) (tstamp 613aa1c3-72d7-4c37-be06-7e309bb7b39d))
  (pad "b14" thru_hole circle (at 33.02 2.54) (size 1.55 1.55) (drill 1) (layers *.Cu *.Mask) (tstamp 2f247736-f660-4ee8-bcbe-8301728cd99e))
  (pad "b15" thru_hole circle (at 35.56 2.54) (size 1.55 1.55) (drill 1) (layers *.Cu *.Mask) (tstamp c7521441-af7b-46cd-b7c8-f61582ac58c3))
  (pad "b16" thru_hole circle (at 38.1 2.54) (size 1.55 1.55) (drill 1) (layers *.Cu *.Mask) (tstamp 825e6aef-813b-4fd5-b39d-404ccafdac80))
  (pad "b17" thru_hole circle (at 40.64 2.54) (size 1.55 1.55) (drill 1) (layers *.Cu *.Mask) (tstamp ff7039d7-b81d-4565-bf01-4530590cac71))
  (pad "b18" thru_hole circle (at 43.18 2.54) (size 1.55 1.55) (drill 1) (layers *.Cu *.Mask) (tstamp 6c69dd92-b6a8-48f5-9cfc-5bc448a17f4a))
  (pad "b19" thru_hole circle (at 45.72 2.54) (size 1.55 1.55) (drill 1) (layers *.Cu *.Mask) (tstamp 7fd02908-918c-4422-869c-04632124f394))
  (pad "b20" thru_hole circle (at 48.26 2.54) (size 1.55 1.55) (drill 1) (layers *.Cu *.Mask) (tstamp 5e79d990-3d35-4a89-8888-6da3fee1fc88))
  (pad "b21" thru_hole circle (at 50.8 2.54) (size 1.55 1.55) (drill 1) (layers *.Cu *.Mask) (tstamp b856f638-1a01-4898-9235-689d57b32ab5))
  (pad "b22" thru_hole circle (at 53.34 2.54) (size 1.55 1.55) (drill 1) (layers *.Cu *.Mask) (tstamp 66915116-d7f6-4f35-b0e5-26a75f7a8757))
  (pad "b23" thru_hole circle (at 55.88 2.54) (size 1.55 1.55) (drill 1) (layers *.Cu *.Mask) (tstamp 0ec6bd36-708d-4be1-ba58-6003b5a57705))
  (pad "b24" thru_hole circle (at 58.42 2.54) (size 1.55 1.55) (drill 1) (layers *.Cu *.Mask) (tstamp 211d6a24-f6a6-4442-95ac-ff6f415639de))
  (pad "b25" thru_hole circle (at 60.96 2.54) (size 1.55 1.55) (drill 1) (layers *.Cu *.Mask) (tstamp f56fcda0-1770-4ae9-a770-de2463a72c69))
  (pad "b26" thru_hole circle (at 63.5 2.54) (size 1.55 1.55) (drill 1) (layers *.Cu *.Mask) (tstamp 71568b84-464e-408e-a87f-241a23cbfda9))
  (pad "b27" thru_hole circle (at 66.04 2.54) (size 1.55 1.55) (drill 1) (layers *.Cu *.Mask) (tstamp d853f2da-92e4-4831-a979-cf4af717bf86))
  (pad "b28" thru_hole circle (at 68.58 2.54) (size 1.55 1.55) (drill 1) (layers *.Cu *.Mask) (tstamp 1ead69e6-530a-47e9-a041-aa433b5a16d5))
  (pad "b29" thru_hole circle (at 71.12 2.54) (size 1.55 1.55) (drill 1) (layers *.Cu *.Mask) (tstamp 07534eb0-26c4-41c1-931f-0ef9bc534db9))
  (pad "b30" thru_hole circle (at 73.66 2.54) (size 1.55 1.55) (drill 1) (layers *.Cu *.Mask) (tstamp 908e2c2b-6f9c-4239-a4fc-a307905ee9ed))
  (pad "b31" thru_hole circle (at 76.2 2.54) (size 1.55 1.55) (drill 1) (layers *.Cu *.Mask) (tstamp 3366b960-af23-4dde-9069-a137ece6be9c))
  (pad "b32" thru_hole circle (at 78.74 2.54) (size 1.55 1.55) (drill 1) (layers *.Cu *.Mask) (tstamp 0d5e54a0-d8cc-4e25-a261-6961bdcbcfd6))
  (model "${KICAD6_3DMODEL_DIR}/Connector_DIN.3dshapes/DIN41612_B_2x32_Male_Horizontal_THT.wrl"
    (offset (xyz 0 0 0))
    (scale (xyz 1 1 1))
    (rotate (xyz 0 0 0))
  )
  (model "/home/ian/Projects/ikrlib/packages3D/din_41612_b_a.wrl"
    (offset (xyz -4.5 12.5 2.5))
    (scale (xyz 0.395 0.395 0.395))
    (rotate (xyz 0 90 -180))
  )
)
