(footprint "DIP-28-3" (version 20211014) (generator pcbnew)
  (layer "F.Cu")
  (tedit 645DC37C)
  (descr "28-lead dip package, row spacing 7.62 mm (300 mils)")
  (tags "dil dip 2.54 300")
  (attr through_hole)
  (fp_text reference "REF**" (at 0 13.97 90) (layer "F.SilkS")
    (effects (font (size 1 1) (thickness 0.15)))
    (tstamp 97619bd4-67ad-4dcb-a0f3-72290e48b3d9)
  )
  (fp_text value "DIP-28-3" (at 0 -6.35 90) (layer "F.SilkS")
    (effects (font (size 1 1) (thickness 0.15)))
    (tstamp 924737ce-e727-4408-8953-c12b10e1063d)
  )
  (fp_line (start -3.675 -18.805) (end -3.675 -17.535) (layer "F.SilkS") (width 0.15) (tstamp 25685d95-061b-41e5-bee4-bdfb1eabe30b))
  (fp_line (start 3.675 -18.805) (end 3.675 -17.535) (layer "F.SilkS") (width 0.15) (tstamp 4bf85d01-facb-413d-abaa-f12286fafe17))
  (fp_line (start -3.675 18.805) (end -3.675 17.535) (layer "F.SilkS") (width 0.15) (tstamp 51976964-1d89-4c34-b12f-733a5d08c4bb))
  (fp_line (start -3.675 -18.805) (end 3.675 -18.805) (layer "F.SilkS") (width 0.15) (tstamp 8346b611-7f92-40d5-8d2c-1d2d3001f319))
  (fp_line (start -3.675 18.805) (end 3.675 18.805) (layer "F.SilkS") (width 0.15) (tstamp c7b5ee06-0133-4734-b0c4-2ce30a3ba8ed))
  (fp_line (start 3.675 18.805) (end 3.675 17.535) (layer "F.SilkS") (width 0.15) (tstamp cb20de2a-525a-4312-8653-fb547331cd6d))
  (fp_line (start -3.675 -17.535) (end -4.61 -17.535) (layer "F.SilkS") (width 0.15) (tstamp d43a4f09-6cf7-4970-a175-ed37471bfc2f))
  (fp_arc (start 0.635 -18.415) (mid 0 -17.78) (end -0.635 -18.415) (layer "F.SilkS") (width 0.15) (tstamp 41345b37-6c7a-42cb-9569-503896b9f412))
  (fp_line (start -4.86 -18.96) (end -4.86 18.99) (layer "F.CrtYd") (width 0.05) (tstamp 070d3cb2-5963-422d-8770-fa7d04bf9a98))
  (fp_line (start -4.86 18.99) (end 4.84 18.99) (layer "F.CrtYd") (width 0.05) (tstamp 5004c2c9-9fe6-4a12-9275-1e2257fa9a1b))
  (fp_line (start -4.86 -18.96) (end 4.84 -18.96) (layer "F.CrtYd") (width 0.05) (tstamp 766da825-394d-4852-a2c8-ddea5a0a9b37))
  (fp_line (start 4.84 -18.96) (end 4.84 18.99) (layer "F.CrtYd") (width 0.05) (tstamp e57daa1d-ee15-41b6-a021-7cbb10c7c326))
  (pad "1" thru_hole rect (at -3.81 -16.51) (size 1.6 1.6) (drill 0.8) (layers *.Cu *.Mask "F.SilkS") (tstamp 0bdf1768-0df2-4f58-83ff-8f986ec20e13))
  (pad "2" thru_hole oval (at -3.81 -13.97) (size 1.6 1.6) (drill 0.8) (layers *.Cu *.Mask "F.SilkS") (tstamp dcede773-9283-4e92-8212-3225fc046b21))
  (pad "3" thru_hole oval (at -3.81 -11.43) (size 1.6 1.6) (drill 0.8) (layers *.Cu *.Mask "F.SilkS") (tstamp b11c67b2-038f-40a9-b27d-c944dd1fa9df))
  (pad "4" thru_hole oval (at -3.81 -8.89) (size 1.6 1.6) (drill 0.8) (layers *.Cu *.Mask "F.SilkS") (tstamp f6240840-bf51-4300-ace6-7630af58b1ec))
  (pad "5" thru_hole oval (at -3.81 -6.35) (size 1.6 1.6) (drill 0.8) (layers *.Cu *.Mask "F.SilkS") (tstamp 3339e1c5-3678-4ca1-a2a6-93b693505e4e))
  (pad "6" thru_hole oval (at -3.81 -3.81) (size 1.6 1.6) (drill 0.8) (layers *.Cu *.Mask "F.SilkS") (tstamp 9cc27259-e533-49b4-b7fb-3bbdf91f5db5))
  (pad "7" thru_hole oval (at -3.81 -1.27) (size 1.6 1.6) (drill 0.8) (layers *.Cu *.Mask "F.SilkS") (tstamp 89d56a15-cb18-4ff4-a1f3-36734228846d))
  (pad "8" thru_hole oval (at -3.81 1.27) (size 1.6 1.6) (drill 0.8) (layers *.Cu *.Mask "F.SilkS") (tstamp 21bf004d-b6ff-4c2c-934f-566a48741664))
  (pad "9" thru_hole oval (at -3.81 3.81) (size 1.6 1.6) (drill 0.8) (layers *.Cu *.Mask "F.SilkS") (tstamp 0efc4817-79bf-4caf-8bf0-9fcd2a93abeb))
  (pad "10" thru_hole oval (at -3.81 6.35) (size 1.6 1.6) (drill 0.8) (layers *.Cu *.Mask "F.SilkS") (tstamp a437155b-da4e-40ce-8027-a6c099dfef0f))
  (pad "11" thru_hole oval (at -3.81 8.89) (size 1.6 1.6) (drill 0.8) (layers *.Cu *.Mask "F.SilkS") (tstamp 1667a7c3-7d87-4878-983d-6141daa878aa))
  (pad "12" thru_hole oval (at -3.81 11.43) (size 1.6 1.6) (drill 0.8) (layers *.Cu *.Mask "F.SilkS") (tstamp 04b918ce-aa9d-4c34-ae83-fa679cf3cd9b))
  (pad "13" thru_hole oval (at -3.81 13.97) (size 1.6 1.6) (drill 0.8) (layers *.Cu *.Mask "F.SilkS") (tstamp 359bbb29-1fe5-4ae2-be78-e72897b9286e))
  (pad "14" thru_hole oval (at -3.81 16.51) (size 1.6 1.6) (drill 0.8) (layers *.Cu *.Mask "F.SilkS") (tstamp 8321bb6a-eaec-4487-9296-7c9e99d9ea85))
  (pad "15" thru_hole oval (at 3.81 16.51) (size 1.6 1.6) (drill 0.8) (layers *.Cu *.Mask "F.SilkS") (tstamp b7c37378-4742-42ce-b818-05907c0dc529))
  (pad "16" thru_hole oval (at 3.81 13.97) (size 1.6 1.6) (drill 0.8) (layers *.Cu *.Mask "F.SilkS") (tstamp c7f50570-fd76-4023-be31-2d1f82376111))
  (pad "17" thru_hole oval (at 3.81 11.43) (size 1.6 1.6) (drill 0.8) (layers *.Cu *.Mask "F.SilkS") (tstamp 5add7d2c-5e0f-4897-89d0-8da8de2a6c04))
  (pad "18" thru_hole oval (at 3.81 8.89) (size 1.6 1.6) (drill 0.8) (layers *.Cu *.Mask "F.SilkS") (tstamp e9d60ecc-c2be-4588-aeb2-e789d4a88357))
  (pad "19" thru_hole oval (at 3.81 6.35) (size 1.6 1.6) (drill 0.8) (layers *.Cu *.Mask "F.SilkS") (tstamp e030d12d-e144-4a84-951f-b9fbe7e2f998))
  (pad "20" thru_hole oval (at 3.81 3.81) (size 1.6 1.6) (drill 0.8) (layers *.Cu *.Mask "F.SilkS") (tstamp f9724e1b-3726-4248-80c6-8de1cea8d749))
  (pad "21" thru_hole oval (at 3.81 1.27) (size 1.6 1.6) (drill 0.8) (layers *.Cu *.Mask "F.SilkS") (tstamp 9d22cb00-33be-41a0-ad7c-78a81c1c1515))
  (pad "22" thru_hole oval (at 3.81 -1.27) (size 1.6 1.6) (drill 0.8) (layers *.Cu *.Mask "F.SilkS") (tstamp 14c3367d-1f0e-4d27-a08b-cd17d4e9c72e))
  (pad "23" thru_hole oval (at 3.81 -3.81) (size 1.6 1.6) (drill 0.8) (layers *.Cu *.Mask "F.SilkS") (tstamp cc42285d-e5b0-450b-ad46-b9ca27c6c5ee))
  (pad "24" thru_hole oval (at 3.81 -6.35) (size 1.6 1.6) (drill 0.8) (layers *.Cu *.Mask "F.SilkS") (tstamp 2db72e64-cdc0-42a2-95eb-8e7402700fac))
  (pad "25" thru_hole oval (at 3.81 -8.89) (size 1.6 1.6) (drill 0.8) (layers *.Cu *.Mask "F.SilkS") (tstamp 5a08e0ce-7b28-4865-8a20-f82b65735934))
  (pad "26" thru_hole oval (at 3.81 -11.43) (size 1.6 1.6) (drill 0.8) (layers *.Cu *.Mask "F.SilkS") (tstamp 49fda96d-8c13-48b2-b416-01b42cd22116))
  (pad "27" thru_hole oval (at 3.81 -13.97) (size 1.6 1.6) (drill 0.8) (layers *.Cu *.Mask "F.SilkS") (tstamp 37ee0835-b444-4086-9c2d-b5d3e22f674d))
  (pad "28" thru_hole oval (at 3.81 -16.51) (size 1.6 1.6) (drill 0.8) (layers *.Cu *.Mask "F.SilkS") (tstamp e89786ec-fbab-4605-9efa-90d162b239e8))
  (model "Housings_DIP.3dshapes/DIP-28_W7.62mm.wrl"
    (offset (xyz -3.809999943 16.50999975 0))
    (scale (xyz 1 1 1))
    (rotate (xyz 0 0 0))
  )
  (model "${KISYS3DMOD}/Package_DIP.3dshapes/DIP-28_W7.62mm_Socket.wrl"
    (offset (xyz -3.75 16.5 0))
    (scale (xyz 1 1 1))
    (rotate (xyz 0 0 0))
  )
)
