(footprint "DIP-16-3" (version 20211014) (generator pcbnew)
  (layer "F.Cu")
  (tedit 645DC31A)
  (descr "16-lead dip package, row spacing 7.62 mm (300 mils)")
  (tags "dil dip 2.54 300")
  (attr through_hole)
  (fp_text reference "REF**" (at 0.127 5.08 90) (layer "F.SilkS")
    (effects (font (size 1 1) (thickness 0.15)))
    (tstamp 9a52d6a4-ec35-4a57-95d6-f8e1c328a743)
  )
  (fp_text value "DIP-16-3" (at 0.127 -5.08 90) (layer "F.SilkS")
    (effects (font (size 1 1) (thickness 0.15)))
    (tstamp dadb52c3-a81d-42a7-b54e-32dff446b5ae)
  )
  (fp_line (start -3.548 -11.185) (end -3.548 -9.915) (layer "F.SilkS") (width 0.15) (tstamp 26273980-c0a6-438f-bc70-6be58c6b5d07))
  (fp_line (start 3.802 11.185) (end 3.802 9.915) (layer "F.SilkS") (width 0.15) (tstamp 434eb6f5-6eac-435c-ac88-884597750c94))
  (fp_line (start -3.548 11.185) (end -3.548 9.915) (layer "F.SilkS") (width 0.15) (tstamp 5ab0efa2-6ab9-4e12-9745-4ca3b6062226))
  (fp_line (start -3.548 11.185) (end 3.802 11.185) (layer "F.SilkS") (width 0.15) (tstamp 778358f1-d890-4570-b263-0ba880374c24))
  (fp_line (start 3.802 -11.185) (end 3.802 -9.915) (layer "F.SilkS") (width 0.15) (tstamp 828dda27-8164-40de-96b4-803a8bce0883))
  (fp_line (start -3.548 -11.185) (end 3.802 -11.185) (layer "F.SilkS") (width 0.15) (tstamp 9241d27b-cee7-4065-b480-439c4f4d64ef))
  (fp_line (start -3.548 -9.915) (end -4.483 -9.915) (layer "F.SilkS") (width 0.15) (tstamp bdfc4715-c6ee-47ec-8978-077838963a54))
  (fp_arc (start 0.762 -10.922) (mid 0.127 -10.287) (end -0.508 -10.922) (layer "F.SilkS") (width 0.15) (tstamp 8676286b-55c9-4710-a4b8-e9438a7c5541))
  (fp_line (start -4.733 -11.34) (end 4.967 -11.34) (layer "F.CrtYd") (width 0.05) (tstamp 01044b75-8f6d-4aa1-9b6b-9cef566fb366))
  (fp_line (start -4.733 -11.34) (end -4.733 11.36) (layer "F.CrtYd") (width 0.05) (tstamp 538e0b07-5da8-4d64-9d25-12e307fefd75))
  (fp_line (start -4.733 11.36) (end 4.967 11.36) (layer "F.CrtYd") (width 0.05) (tstamp d29a6304-8331-46f6-8901-5e0fdd9ccb5f))
  (fp_line (start 4.967 -11.34) (end 4.967 11.36) (layer "F.CrtYd") (width 0.05) (tstamp f76cbbe5-85eb-46c7-823a-15d6d832a075))
  (pad "1" thru_hole rect (at -3.683 -8.89) (size 1.6 1.6) (drill 0.8) (layers *.Cu *.Mask "F.SilkS") (tstamp 57e95246-72a7-4fe9-b195-ce9233927545))
  (pad "2" thru_hole oval (at -3.683 -6.35) (size 1.6 1.6) (drill 0.8) (layers *.Cu *.Mask "F.SilkS") (tstamp 2d805b64-5bed-40dd-8dbb-1e9cb61d1d1a))
  (pad "3" thru_hole oval (at -3.683 -3.81) (size 1.6 1.6) (drill 0.8) (layers *.Cu *.Mask "F.SilkS") (tstamp 22115639-3928-47e1-81e1-e6fb3c236967))
  (pad "4" thru_hole oval (at -3.683 -1.27) (size 1.6 1.6) (drill 0.8) (layers *.Cu *.Mask "F.SilkS") (tstamp 75ff4347-0c39-43ad-a10e-cbe700d4c26d))
  (pad "5" thru_hole oval (at -3.683 1.27) (size 1.6 1.6) (drill 0.8) (layers *.Cu *.Mask "F.SilkS") (tstamp bfe2d5f7-848f-4d17-946f-ae8e09121168))
  (pad "6" thru_hole oval (at -3.683 3.81) (size 1.6 1.6) (drill 0.8) (layers *.Cu *.Mask "F.SilkS") (tstamp 25619dec-7fa5-4f00-8695-7722b4b80d93))
  (pad "7" thru_hole oval (at -3.683 6.35) (size 1.6 1.6) (drill 0.8) (layers *.Cu *.Mask "F.SilkS") (tstamp 0cb2222d-32bc-4824-a710-cbc761098379))
  (pad "8" thru_hole oval (at -3.683 8.89) (size 1.6 1.6) (drill 0.8) (layers *.Cu *.Mask "F.SilkS") (tstamp 88b39c09-62cb-49bf-8f30-5e089c386e9d))
  (pad "9" thru_hole oval (at 3.937 8.89) (size 1.6 1.6) (drill 0.8) (layers *.Cu *.Mask "F.SilkS") (tstamp ebac4411-e7d3-4575-9367-df970f67f7fc))
  (pad "10" thru_hole oval (at 3.937 6.35) (size 1.6 1.6) (drill 0.8) (layers *.Cu *.Mask "F.SilkS") (tstamp 88d43bbc-ed48-4ca1-a2c7-738d24a2ecef))
  (pad "11" thru_hole oval (at 3.937 3.81) (size 1.6 1.6) (drill 0.8) (layers *.Cu *.Mask "F.SilkS") (tstamp f4085a77-feff-4295-8559-f85707b8f179))
  (pad "12" thru_hole oval (at 3.937 1.27) (size 1.6 1.6) (drill 0.8) (layers *.Cu *.Mask "F.SilkS") (tstamp c828a07f-2a0b-4b37-9bfb-a4484136faf6))
  (pad "13" thru_hole oval (at 3.937 -1.27) (size 1.6 1.6) (drill 0.8) (layers *.Cu *.Mask "F.SilkS") (tstamp 57275c93-fa63-4984-8bd3-9c273b9fdc73))
  (pad "14" thru_hole oval (at 3.937 -3.81) (size 1.6 1.6) (drill 0.8) (layers *.Cu *.Mask "F.SilkS") (tstamp 562fb5cf-6da4-4d14-b7c1-b2e96d0c11f9))
  (pad "15" thru_hole oval (at 3.937 -6.35) (size 1.6 1.6) (drill 0.8) (layers *.Cu *.Mask "F.SilkS") (tstamp f124bb15-ce80-4243-b467-a878615f398c))
  (pad "16" thru_hole oval (at 3.937 -8.89) (size 1.6 1.6) (drill 0.8) (layers *.Cu *.Mask "F.SilkS") (tstamp f895bbb7-0186-421a-a068-74f060c7df33))
  (model "Housings_DIP.3dshapes/DIP-16_W7.62mm.wrl"
    (offset (xyz 2.69 8.89 0))
    (scale (xyz 1 1 1))
    (rotate (xyz 0 0 0))
  )
  (model "${KISYS3DMOD}/Package_DIP.3dshapes/DIP-16_W7.62mm_Socket.wrl"
    (offset (xyz -3.5 9 0))
    (scale (xyz 1 1 1))
    (rotate (xyz 0 0 0))
  )
)
