(module EdgeConn-16-100mil (layer F.Cu) (tedit 5AD38AA1)
  (fp_text reference REF** (at 15.24 -2.54) (layer F.SilkS)
    (effects (font (size 1 1) (thickness 0.15)))
  )
  (fp_text value EdgeConn-16-100mil (at -12.7 -2.54) (layer F.Fab)
    (effects (font (size 1 1) (thickness 0.15)))
  )
  (pad 1 connect rect (at 17.78 0) (size 1.524 10.16) (drill (offset 0 4.318)) (layers F.Cu F.Mask))
  (pad 2 connect rect (at 15.24 0) (size 1.524 10.16) (drill (offset 0 4.318)) (layers F.Cu F.Mask))
  (pad 3 connect rect (at 12.7 0) (size 1.524 10.16) (drill (offset 0 4.318)) (layers F.Cu F.Mask))
  (pad 4 connect rect (at 10.16 0) (size 1.524 10.16) (drill (offset 0 4.318)) (layers F.Cu F.Mask))
  (pad 5 connect rect (at 7.62 0) (size 1.524 10.16) (drill (offset 0 4.318)) (layers F.Cu F.Mask))
  (pad 6 connect rect (at 5.08 0) (size 1.524 10.16) (drill (offset 0 4.318)) (layers F.Cu F.Mask))
  (pad 7 connect rect (at 2.54 0) (size 1.524 10.16) (drill (offset 0 4.318)) (layers F.Cu F.Mask))
  (pad 8 connect rect (at 0 0) (size 1.524 10.16) (drill (offset 0 4.318)) (layers F.Cu F.Mask))
  (pad 9 connect rect (at -2.54 0) (size 1.524 10.16) (drill (offset 0 4.318)) (layers F.Cu F.Mask))
  (pad 10 connect rect (at -5.08 0) (size 1.524 10.16) (drill (offset 0 4.318)) (layers F.Cu F.Mask))
  (pad 11 connect rect (at -7.62 0) (size 1.524 10.16) (drill (offset 0 4.318)) (layers F.Cu F.Mask))
  (pad 12 connect rect (at -10.16 0) (size 1.524 10.16) (drill (offset 0 4.318)) (layers F.Cu F.Mask))
  (pad 13 connect rect (at -12.7 0) (size 1.524 10.16) (drill (offset 0 4.318)) (layers F.Cu F.Mask))
  (pad 14 connect rect (at -15.24 0) (size 1.524 10.16) (drill (offset 0 4.318)) (layers F.Cu F.Mask))
  (pad 15 connect rect (at -17.78 0) (size 1.524 10.16) (drill (offset 0 4.318)) (layers F.Cu F.Mask))
  (pad 16 connect rect (at -20.32 0) (size 1.524 10.16) (drill (offset 0 4.318)) (layers F.Cu F.Mask))
  (pad "" connect rect (at 17.78 4.32) (size 1.524 10.16) (layers B.Cu B.Mask))
  (pad "" connect rect (at 15.24 4.32) (size 1.524 10.16) (layers B.Cu B.Mask))
  (pad "" connect rect (at 12.7 4.32) (size 1.524 10.16) (layers B.Cu B.Mask))
  (pad "" connect rect (at 10.16 4.32) (size 1.524 10.16) (layers B.Cu B.Mask))
  (pad "" connect rect (at 7.62 4.32) (size 1.524 10.16) (layers B.Cu B.Mask))
  (pad "" connect rect (at 5.08 4.32) (size 1.524 10.16) (layers B.Cu B.Mask))
  (pad "" connect rect (at 2.54 4.32) (size 1.524 10.16) (layers B.Cu B.Mask))
  (pad "" connect rect (at 0 4.32) (size 1.524 10.16) (layers B.Cu B.Mask))
  (pad "" connect rect (at -2.54 4.32) (size 1.524 10.16) (layers B.Cu B.Mask))
  (pad "" connect rect (at -5.08 4.32) (size 1.524 10.16) (layers B.Cu B.Mask))
  (pad "" connect rect (at -7.62 4.32) (size 1.524 10.16) (layers B.Cu B.Mask))
  (pad "" connect rect (at -10.16 4.32) (size 1.524 10.16) (layers B.Cu B.Mask))
  (pad "" connect rect (at -12.7 4.32) (size 1.524 10.16) (layers B.Cu B.Mask))
  (pad "" connect rect (at -15.24 4.32) (size 1.524 10.16) (layers B.Cu B.Mask))
  (pad "" connect rect (at -17.78 4.32) (size 1.524 10.16) (layers B.Cu B.Mask))
  (pad "" connect rect (at -20.32 4.32) (size 1.524 10.16) (layers B.Cu B.Mask))
)
