(module Mtg_hole_3mm (layer F.Cu) (tedit 5AD7BF44)
  (fp_text reference REF** (at 0 2.54) (layer F.SilkS) hide
    (effects (font (size 1 1) (thickness 0.15)))
  )
  (fp_text value Mtg_hole_3mm (at 0 -2.54) (layer F.Fab) hide
    (effects (font (size 1 1) (thickness 0.15)))
  )
  (fp_circle (center 0 0) (end 1.905 0) (layer F.SilkS) (width 0.15))
  (fp_circle (center 0 0) (end 1.905 0) (layer B.SilkS) (width 0.15))
  (pad "" np_thru_hole circle (at 0 0) (size 3 3) (drill 3) (layers *.Cu *.Mask F.SilkS))
)
