(module PCB-JP-2-OP (layer F.Cu) (tedit 5B040B2C)
  (fp_text reference REF** (at 0 1.905) (layer F.SilkS)
    (effects (font (size 1 1) (thickness 0.15)))
  )
  (fp_text value PCB-JP-2-OP (at 0 -1.905) (layer F.Fab)
    (effects (font (size 1 1) (thickness 0.15)))
  )
  (pad 1 smd rect (at -1 0) (size 1.524 1.524) (layers F.Cu F.Paste F.Mask))
  (pad 2 smd rect (at 1 0) (size 1.524 1.524) (layers F.Cu F.Paste F.Mask))
)
