(module Res_H_10.16 (layer F.Cu) (tedit 633AC885)
  (fp_text reference REF** (at 3.81 0) (layer F.SilkS)
    (effects (font (size 1 1) (thickness 0.15)))
  )
  (fp_text value R (at 8.89 0) (layer F.SilkS)
    (effects (font (size 1 1) (thickness 0.15)) (justify right))
  )
  (fp_line (start 1.27 0) (end 1.27 -1.27) (layer F.SilkS) (width 0.12))
  (fp_line (start 1.27 -1.27) (end 8.89 -1.27) (layer F.SilkS) (width 0.12))
  (fp_line (start 8.89 -1.27) (end 8.89 1.27) (layer F.SilkS) (width 0.12))
  (fp_line (start 8.89 1.27) (end 1.27 1.27) (layer F.SilkS) (width 0.12))
  (fp_line (start 1.27 1.27) (end 1.27 0) (layer F.SilkS) (width 0.12))
  (fp_line (start 1.27 0) (end 0 0) (layer F.SilkS) (width 0.12))
  (fp_line (start 8.89 0) (end 10.16 0) (layer F.SilkS) (width 0.12))
  (pad 1 thru_hole rect (at 0 0) (size 1.524 1.524) (drill 0.762) (layers *.Cu *.Mask))
  (pad 2 thru_hole circle (at 10.16 0) (size 1.524 1.524) (drill 0.762) (layers *.Cu *.Mask))
)
