(module Resistor_Vertical_RM2.5 (layer F.Cu) (tedit 60EDE6B8)
  (fp_text reference REF** (at 0 1.27) (layer F.SilkS)
    (effects (font (size 0.6 0.6) (thickness 0.1)))
  )
  (fp_text value Resistor_Vertical_RM2.5 (at 0 -1.27) (layer F.SilkS)
    (effects (font (size 0.6 0.6) (thickness 0.1)))
  )
  (fp_circle (center -1.27 0) (end 0.13 0) (layer F.SilkS) (width 0.12))
  (fp_line (start 1.27 0) (end 0.13 0) (layer F.SilkS) (width 0.12))
  (pad 1 thru_hole rect (at -1.27 0) (size 1.524 1.524) (drill 0.762) (layers *.Cu *.Mask))
  (pad 2 thru_hole circle (at 1.27 0) (size 1.524 1.524) (drill 0.762) (layers *.Cu *.Mask))
  (model ${KISYS3DMOD}/Resistor_THT.3dshapes/R_Axial_DIN0207_L6.3mm_D2.5mm_P2.54mm_Vertical.step
    (offset (xyz -1.25 0 0))
    (scale (xyz 1 1 1))
    (rotate (xyz 0 0 0))
  )
)
