(module Switch_SPST_P4.7 (layer F.Cu) (tedit 63205E50)
  (fp_text reference REF** (at 0.635 3.175) (layer F.SilkS)
    (effects (font (size 1 1) (thickness 0.15)))
  )
  (fp_text value Switch_SPST_P4.7 (at 0 -2.54) (layer F.Fab)
    (effects (font (size 1 1) (thickness 0.15)))
  )
  (fp_line (start -6.35 -1.905) (end 6.35 -1.905) (layer F.SilkS) (width 0.12))
  (fp_line (start 6.35 -1.905) (end 6.35 1.905) (layer F.SilkS) (width 0.12))
  (fp_line (start 6.35 1.905) (end -6.35 1.905) (layer F.SilkS) (width 0.12))
  (fp_line (start -6.35 1.905) (end -6.35 -1.905) (layer F.SilkS) (width 0.12))
  (pad 2 thru_hole circle (at 0 0) (size 2.6 2.6) (drill 1.6) (layers *.Cu *.Mask))
  (pad 1 thru_hole rect (at -4.7 0) (size 2.6 2.6) (drill 1.6) (layers *.Cu *.Mask))
  (pad 3 thru_hole circle (at 4.7 0) (size 2.6 2.6) (drill 1.6) (layers *.Cu *.Mask))
  (model /home/ian/Projects/ikrlib/packages3D/CX_Sw_1000_SPDT_P047.wrl
    (offset (xyz 0 0 7.5))
    (scale (xyz 0.4001 0.4 0.4))
    (rotate (xyz 180 0 0))
  )
)
