(module TactSw-12mm-sq (layer F.Cu) (tedit 602812A5)
  (fp_text reference REF** (at 4.0132 5.4864) (layer F.SilkS)
    (effects (font (size 1 1) (thickness 0.15)))
  )
  (fp_text value Button (at -3.81 -5.4864) (layer F.SilkS)
    (effects (font (size 1 1) (thickness 0.15)))
  )
  (fp_line (start 4.9276 -0.4064) (end 5.7404 -1.8796) (layer F.Cu) (width 0.5))
  (fp_line (start 0 0) (end 2.9464 5.08) (layer F.Cu) (width 0.5))
  (fp_line (start -5.715 3.175) (end -2.54 5.334) (layer F.Cu) (width 0.5))
  (fp_line (start -2.54 5.334) (end -1.016 5.842) (layer F.Cu) (width 0.5))
  (fp_line (start -1.016 5.842) (end 1.016 5.842) (layer F.Cu) (width 0.5))
  (fp_line (start 1.016 5.842) (end 2.54 5.334) (layer F.Cu) (width 0.5))
  (fp_line (start 2.54 5.334) (end 5.715 3.175) (layer F.Cu) (width 0.5))
  (fp_line (start -2.921 3.048) (end -2.54 3.429) (layer F.Cu) (width 0.5))
  (fp_arc (start 0 0) (end -2.921 3.048) (angle 100) (layer F.Cu) (width 0.5))
  (fp_line (start 1.143 -4.445) (end 5.588 -2.921) (layer F.Cu) (width 0.5))
  (fp_line (start -1.651 -4.064) (end -1.016 -4.191) (layer F.Cu) (width 0.5))
  (fp_circle (center 0 -4.445) (end 0.381 -5.461) (layer F.Cu) (width 0.5))
  (fp_line (start -5.588 -3.048) (end -2.794 -3.81) (layer F.Cu) (width 0.5))
  (fp_circle (center 0 0) (end 4.5 0) (layer F.SilkS) (width 0.15))
  (fp_line (start 0 -6.35) (end 6.35 -6.35) (layer F.SilkS) (width 0.15))
  (fp_line (start 6.35 -6.35) (end 6.35 6.35) (layer F.SilkS) (width 0.15))
  (fp_line (start 6.35 6.35) (end -6.35 6.35) (layer F.SilkS) (width 0.15))
  (fp_line (start -6.35 6.35) (end -6.35 -6.35) (layer F.SilkS) (width 0.15))
  (fp_line (start -6.35 -6.35) (end 0 -6.35) (layer F.SilkS) (width 0.15))
  (pad 1 thru_hole circle (at -6.35 2.54) (size 2.286 2.286) (drill 1.27) (layers *.Cu *.Mask F.SilkS))
  (pad 2 thru_hole circle (at -6.35 -2.54) (size 2.286 2.286) (drill 1.27) (layers *.Cu *.Mask F.SilkS))
  (pad 2 thru_hole circle (at 6.35 -2.54) (size 2.286 2.286) (drill 1.27) (layers *.Cu *.Mask F.SilkS))
  (pad 1 thru_hole circle (at 6.35 2.54) (size 2.286 2.286) (drill 1.27) (layers *.Cu *.Mask F.SilkS))
  (pad "" np_thru_hole circle (at 0 -4.445) (size 1.8034 1.8034) (drill 1.8034) (layers *.Cu *.Mask F.SilkS))
  (pad "" np_thru_hole circle (at 0 4.445) (size 1.8034 1.8034) (drill 1.8034) (layers *.Cu *.Mask F.SilkS))
  (pad "" connect circle (at 4.5 0) (size 1.7 1.7) (layers F.Cu F.Mask))
  (pad "" thru_hole circle (at -2.25 -3.9) (size 1.7 1.7) (drill 0.9) (layers *.Cu *.Mask F.SilkS))
  (pad "" thru_hole circle (at -2.25 3.9) (size 1.7 1.7) (drill 0.9) (layers *.Cu *.Mask F.SilkS))
  (pad "" connect circle (at 0 0) (size 4 4) (layers F.Cu F.Mask))
  (model /home/ian/Projects/ikrlib/packages3D/b3f-4000.wrl
    (at (xyz 0 0 0))
    (scale (xyz 0.4 0.4 0.4))
    (rotate (xyz -90 0 0))
  )
  (model /home/ian/Tmp/xxx.stp
    (at (xyz 0 0 0))
    (scale (xyz 1 1 1))
    (rotate (xyz -90 0 0))
  )
)
