ISO-10303-21;
HEADER;
FILE_DESCRIPTION(('FreeCAD Model'),'2;1');
FILE_NAME('/home/ian/Documents/3dDrawings/d6_round_red.step',
  '2021-03-21T15:34:06',('Author'),(''),
  'Open CASCADE STEP processor 7.3','FreeCAD','Unknown');
FILE_SCHEMA(('AUTOMOTIVE_DESIGN { 1 0 10303 214 1 1 1 1 }'));
ENDSEC;
DATA;
#1 = APPLICATION_PROTOCOL_DEFINITION('international standard',
  'automotive_design',2000,#2);
#2 = APPLICATION_CONTEXT(
  'core data for automotive mechanical design processes');
#3 = SHAPE_DEFINITION_REPRESENTATION(#4,#10);
#4 = PRODUCT_DEFINITION_SHAPE('','',#5);
#5 = PRODUCT_DEFINITION('design','',#6,#9);
#6 = PRODUCT_DEFINITION_FORMATION('','',#7);
#7 = PRODUCT('Bumps','Bumps','',(#8));
#8 = PRODUCT_CONTEXT('',#2,'mechanical');
#9 = PRODUCT_DEFINITION_CONTEXT('part definition',#2,'design');
#10 = ADVANCED_BREP_SHAPE_REPRESENTATION('',(#11,#15),#428);
#11 = AXIS2_PLACEMENT_3D('',#12,#13,#14);
#12 = CARTESIAN_POINT('',(0.,0.,0.));
#13 = DIRECTION('',(0.,0.,1.));
#14 = DIRECTION('',(1.,0.,-0.));
#15 = MANIFOLD_SOLID_BREP('',#16);
#16 = CLOSED_SHELL('',(#17,#50,#136,#156,#181,#206,#231,#256,#281,#306,
    #331,#356,#365,#374,#383,#392,#401,#410,#419));
#17 = ADVANCED_FACE('',(#18),#45,.T.);
#18 = FACE_BOUND('',#19,.F.);
#19 = EDGE_LOOP('',(#20,#30,#37,#38));
#20 = ORIENTED_EDGE('',*,*,#21,.T.);
#21 = EDGE_CURVE('',#22,#24,#26,.T.);
#22 = VERTEX_POINT('',#23);
#23 = CARTESIAN_POINT('',(6.,0.,0.));
#24 = VERTEX_POINT('',#25);
#25 = CARTESIAN_POINT('',(6.,0.,5.8));
#26 = LINE('',#27,#28);
#27 = CARTESIAN_POINT('',(6.,0.,0.));
#28 = VECTOR('',#29,1.);
#29 = DIRECTION('',(0.,0.,1.));
#30 = ORIENTED_EDGE('',*,*,#31,.T.);
#31 = EDGE_CURVE('',#24,#24,#32,.T.);
#32 = CIRCLE('',#33,6.);
#33 = AXIS2_PLACEMENT_3D('',#34,#35,#36);
#34 = CARTESIAN_POINT('',(0.,0.,5.8));
#35 = DIRECTION('',(0.,0.,1.));
#36 = DIRECTION('',(1.,0.,0.));
#37 = ORIENTED_EDGE('',*,*,#21,.F.);
#38 = ORIENTED_EDGE('',*,*,#39,.F.);
#39 = EDGE_CURVE('',#22,#22,#40,.T.);
#40 = CIRCLE('',#41,6.);
#41 = AXIS2_PLACEMENT_3D('',#42,#43,#44);
#42 = CARTESIAN_POINT('',(0.,0.,0.));
#43 = DIRECTION('',(0.,0.,1.));
#44 = DIRECTION('',(1.,0.,0.));
#45 = CYLINDRICAL_SURFACE('',#46,6.);
#46 = AXIS2_PLACEMENT_3D('',#47,#48,#49);
#47 = CARTESIAN_POINT('',(0.,0.,0.));
#48 = DIRECTION('',(-0.,-0.,-1.));
#49 = DIRECTION('',(1.,0.,0.));
#50 = ADVANCED_FACE('',(#51,#54,#65,#76,#87,#98,#109,#120),#131,.F.);
#51 = FACE_BOUND('',#52,.F.);
#52 = EDGE_LOOP('',(#53));
#53 = ORIENTED_EDGE('',*,*,#39,.T.);
#54 = FACE_BOUND('',#55,.F.);
#55 = EDGE_LOOP('',(#56));
#56 = ORIENTED_EDGE('',*,*,#57,.T.);
#57 = EDGE_CURVE('',#58,#58,#60,.T.);
#58 = VERTEX_POINT('',#59);
#59 = CARTESIAN_POINT('',(2.54,-2.04,0.));
#60 = CIRCLE('',#61,0.5);
#61 = AXIS2_PLACEMENT_3D('',#62,#63,#64);
#62 = CARTESIAN_POINT('',(2.54,-2.54,0.));
#63 = DIRECTION('',(0.,0.,-1.));
#64 = DIRECTION('',(-2.22044604925E-16,1.,0.));
#65 = FACE_BOUND('',#66,.F.);
#66 = EDGE_LOOP('',(#67));
#67 = ORIENTED_EDGE('',*,*,#68,.T.);
#68 = EDGE_CURVE('',#69,#69,#71,.T.);
#69 = VERTEX_POINT('',#70);
#70 = CARTESIAN_POINT('',(2.04,2.54,0.));
#71 = CIRCLE('',#72,0.5);
#72 = AXIS2_PLACEMENT_3D('',#73,#74,#75);
#73 = CARTESIAN_POINT('',(2.54,2.54,0.));
#74 = DIRECTION('',(-0.,0.,-1.));
#75 = DIRECTION('',(-1.,-1.224646799147E-16,0.));
#76 = FACE_BOUND('',#77,.F.);
#77 = EDGE_LOOP('',(#78));
#78 = ORIENTED_EDGE('',*,*,#79,.T.);
#79 = EDGE_CURVE('',#80,#80,#82,.T.);
#80 = VERTEX_POINT('',#81);
#81 = CARTESIAN_POINT('',(1.5,0.,0.));
#82 = CIRCLE('',#83,1.5);
#83 = AXIS2_PLACEMENT_3D('',#84,#85,#86);
#84 = CARTESIAN_POINT('',(0.,0.,0.));
#85 = DIRECTION('',(0.,0.,-1.));
#86 = DIRECTION('',(1.,0.,0.));
#87 = FACE_BOUND('',#88,.F.);
#88 = EDGE_LOOP('',(#89));
#89 = ORIENTED_EDGE('',*,*,#90,.T.);
#90 = EDGE_CURVE('',#91,#91,#93,.T.);
#91 = VERTEX_POINT('',#92);
#92 = CARTESIAN_POINT('',(-3.05,0.,0.));
#93 = CIRCLE('',#94,0.65);
#94 = AXIS2_PLACEMENT_3D('',#95,#96,#97);
#95 = CARTESIAN_POINT('',(-3.7,0.,0.));
#96 = DIRECTION('',(0.,0.,-1.));
#97 = DIRECTION('',(1.,0.,0.));
#98 = FACE_BOUND('',#99,.F.);
#99 = EDGE_LOOP('',(#100));
#100 = ORIENTED_EDGE('',*,*,#101,.T.);
#101 = EDGE_CURVE('',#102,#102,#104,.T.);
#102 = VERTEX_POINT('',#103);
#103 = CARTESIAN_POINT('',(-2.54,2.04,0.));
#104 = CIRCLE('',#105,0.5);
#105 = AXIS2_PLACEMENT_3D('',#106,#107,#108);
#106 = CARTESIAN_POINT('',(-2.54,2.54,0.));
#107 = DIRECTION('',(0.,-0.,-1.));
#108 = DIRECTION('',(1.110223024625E-16,-1.,0.));
#109 = FACE_BOUND('',#110,.F.);
#110 = EDGE_LOOP('',(#111));
#111 = ORIENTED_EDGE('',*,*,#112,.T.);
#112 = EDGE_CURVE('',#113,#113,#115,.T.);
#113 = VERTEX_POINT('',#114);
#114 = CARTESIAN_POINT('',(-2.04,-2.54,0.));
#115 = CIRCLE('',#116,0.5);
#116 = AXIS2_PLACEMENT_3D('',#117,#118,#119);
#117 = CARTESIAN_POINT('',(-2.54,-2.54,0.));
#118 = DIRECTION('',(0.,0.,-1.));
#119 = DIRECTION('',(1.,0.,0.));
#120 = FACE_BOUND('',#121,.F.);
#121 = EDGE_LOOP('',(#122));
#122 = ORIENTED_EDGE('',*,*,#123,.T.);
#123 = EDGE_CURVE('',#124,#124,#126,.T.);
#124 = VERTEX_POINT('',#125);
#125 = CARTESIAN_POINT('',(4.35,0.,0.));
#126 = CIRCLE('',#127,0.65);
#127 = AXIS2_PLACEMENT_3D('',#128,#129,#130);
#128 = CARTESIAN_POINT('',(3.7,0.,0.));
#129 = DIRECTION('',(0.,0.,-1.));
#130 = DIRECTION('',(1.,0.,0.));
#131 = PLANE('',#132);
#132 = AXIS2_PLACEMENT_3D('',#133,#134,#135);
#133 = CARTESIAN_POINT('',(-3.418600331349E-16,-1.70226710729E-17,0.));
#134 = DIRECTION('',(0.,0.,1.));
#135 = DIRECTION('',(1.,0.,0.));
#136 = ADVANCED_FACE('',(#137,#140),#151,.T.);
#137 = FACE_BOUND('',#138,.T.);
#138 = EDGE_LOOP('',(#139));
#139 = ORIENTED_EDGE('',*,*,#31,.T.);
#140 = FACE_BOUND('',#141,.T.);
#141 = EDGE_LOOP('',(#142));
#142 = ORIENTED_EDGE('',*,*,#143,.F.);
#143 = EDGE_CURVE('',#144,#144,#146,.T.);
#144 = VERTEX_POINT('',#145);
#145 = CARTESIAN_POINT('',(4.55,0.,5.8));
#146 = CIRCLE('',#147,4.55);
#147 = AXIS2_PLACEMENT_3D('',#148,#149,#150);
#148 = CARTESIAN_POINT('',(0.,0.,5.8));
#149 = DIRECTION('',(0.,0.,1.));
#150 = DIRECTION('',(1.,0.,0.));
#151 = PLANE('',#152);
#152 = AXIS2_PLACEMENT_3D('',#153,#154,#155);
#153 = CARTESIAN_POINT('',(-3.418600331349E-16,-1.70226710729E-17,5.8));
#154 = DIRECTION('',(0.,0.,1.));
#155 = DIRECTION('',(1.,0.,0.));
#156 = ADVANCED_FACE('',(#157),#176,.T.);
#157 = FACE_BOUND('',#158,.F.);
#158 = EDGE_LOOP('',(#159,#167,#174,#175));
#159 = ORIENTED_EDGE('',*,*,#160,.T.);
#160 = EDGE_CURVE('',#58,#161,#163,.T.);
#161 = VERTEX_POINT('',#162);
#162 = CARTESIAN_POINT('',(2.54,-2.04,-5.1));
#163 = LINE('',#164,#165);
#164 = CARTESIAN_POINT('',(2.54,-2.04,0.));
#165 = VECTOR('',#166,1.);
#166 = DIRECTION('',(-0.,0.,-1.));
#167 = ORIENTED_EDGE('',*,*,#168,.T.);
#168 = EDGE_CURVE('',#161,#161,#169,.T.);
#169 = CIRCLE('',#170,0.5);
#170 = AXIS2_PLACEMENT_3D('',#171,#172,#173);
#171 = CARTESIAN_POINT('',(2.54,-2.54,-5.1));
#172 = DIRECTION('',(0.,0.,-1.));
#173 = DIRECTION('',(-2.22044604925E-16,1.,0.));
#174 = ORIENTED_EDGE('',*,*,#160,.F.);
#175 = ORIENTED_EDGE('',*,*,#57,.F.);
#176 = CYLINDRICAL_SURFACE('',#177,0.5);
#177 = AXIS2_PLACEMENT_3D('',#178,#179,#180);
#178 = CARTESIAN_POINT('',(2.54,-2.54,0.));
#179 = DIRECTION('',(0.,0.,1.));
#180 = DIRECTION('',(-2.22044604925E-16,1.,0.));
#181 = ADVANCED_FACE('',(#182),#201,.T.);
#182 = FACE_BOUND('',#183,.F.);
#183 = EDGE_LOOP('',(#184,#192,#199,#200));
#184 = ORIENTED_EDGE('',*,*,#185,.T.);
#185 = EDGE_CURVE('',#69,#186,#188,.T.);
#186 = VERTEX_POINT('',#187);
#187 = CARTESIAN_POINT('',(2.04,2.54,-5.1));
#188 = LINE('',#189,#190);
#189 = CARTESIAN_POINT('',(2.04,2.54,0.));
#190 = VECTOR('',#191,1.);
#191 = DIRECTION('',(0.,-0.,-1.));
#192 = ORIENTED_EDGE('',*,*,#193,.T.);
#193 = EDGE_CURVE('',#186,#186,#194,.T.);
#194 = CIRCLE('',#195,0.5);
#195 = AXIS2_PLACEMENT_3D('',#196,#197,#198);
#196 = CARTESIAN_POINT('',(2.54,2.54,-5.1));
#197 = DIRECTION('',(-0.,0.,-1.));
#198 = DIRECTION('',(-1.,-1.224646799147E-16,0.));
#199 = ORIENTED_EDGE('',*,*,#185,.F.);
#200 = ORIENTED_EDGE('',*,*,#68,.F.);
#201 = CYLINDRICAL_SURFACE('',#202,0.5);
#202 = AXIS2_PLACEMENT_3D('',#203,#204,#205);
#203 = CARTESIAN_POINT('',(2.54,2.54,0.));
#204 = DIRECTION('',(0.,0.,1.));
#205 = DIRECTION('',(-1.,-1.224646799147E-16,0.));
#206 = ADVANCED_FACE('',(#207),#226,.T.);
#207 = FACE_BOUND('',#208,.F.);
#208 = EDGE_LOOP('',(#209,#217,#224,#225));
#209 = ORIENTED_EDGE('',*,*,#210,.T.);
#210 = EDGE_CURVE('',#80,#211,#213,.T.);
#211 = VERTEX_POINT('',#212);
#212 = CARTESIAN_POINT('',(1.5,0.,-1.7));
#213 = LINE('',#214,#215);
#214 = CARTESIAN_POINT('',(1.5,0.,0.));
#215 = VECTOR('',#216,1.);
#216 = DIRECTION('',(0.,0.,-1.));
#217 = ORIENTED_EDGE('',*,*,#218,.T.);
#218 = EDGE_CURVE('',#211,#211,#219,.T.);
#219 = CIRCLE('',#220,1.5);
#220 = AXIS2_PLACEMENT_3D('',#221,#222,#223);
#221 = CARTESIAN_POINT('',(0.,0.,-1.7));
#222 = DIRECTION('',(0.,0.,-1.));
#223 = DIRECTION('',(1.,0.,0.));
#224 = ORIENTED_EDGE('',*,*,#210,.F.);
#225 = ORIENTED_EDGE('',*,*,#79,.F.);
#226 = CYLINDRICAL_SURFACE('',#227,1.5);
#227 = AXIS2_PLACEMENT_3D('',#228,#229,#230);
#228 = CARTESIAN_POINT('',(0.,0.,0.));
#229 = DIRECTION('',(0.,0.,1.));
#230 = DIRECTION('',(1.,0.,0.));
#231 = ADVANCED_FACE('',(#232),#251,.T.);
#232 = FACE_BOUND('',#233,.F.);
#233 = EDGE_LOOP('',(#234,#242,#249,#250));
#234 = ORIENTED_EDGE('',*,*,#235,.T.);
#235 = EDGE_CURVE('',#91,#236,#238,.T.);
#236 = VERTEX_POINT('',#237);
#237 = CARTESIAN_POINT('',(-3.05,0.,-1.7));
#238 = LINE('',#239,#240);
#239 = CARTESIAN_POINT('',(-3.05,0.,0.));
#240 = VECTOR('',#241,1.);
#241 = DIRECTION('',(0.,0.,-1.));
#242 = ORIENTED_EDGE('',*,*,#243,.T.);
#243 = EDGE_CURVE('',#236,#236,#244,.T.);
#244 = CIRCLE('',#245,0.65);
#245 = AXIS2_PLACEMENT_3D('',#246,#247,#248);
#246 = CARTESIAN_POINT('',(-3.7,0.,-1.7));
#247 = DIRECTION('',(0.,0.,-1.));
#248 = DIRECTION('',(1.,0.,0.));
#249 = ORIENTED_EDGE('',*,*,#235,.F.);
#250 = ORIENTED_EDGE('',*,*,#90,.F.);
#251 = CYLINDRICAL_SURFACE('',#252,0.65);
#252 = AXIS2_PLACEMENT_3D('',#253,#254,#255);
#253 = CARTESIAN_POINT('',(-3.7,0.,0.));
#254 = DIRECTION('',(0.,0.,1.));
#255 = DIRECTION('',(1.,0.,0.));
#256 = ADVANCED_FACE('',(#257),#276,.T.);
#257 = FACE_BOUND('',#258,.F.);
#258 = EDGE_LOOP('',(#259,#267,#274,#275));
#259 = ORIENTED_EDGE('',*,*,#260,.T.);
#260 = EDGE_CURVE('',#102,#261,#263,.T.);
#261 = VERTEX_POINT('',#262);
#262 = CARTESIAN_POINT('',(-2.54,2.04,-5.1));
#263 = LINE('',#264,#265);
#264 = CARTESIAN_POINT('',(-2.54,2.04,0.));
#265 = VECTOR('',#266,1.);
#266 = DIRECTION('',(0.,0.,-1.));
#267 = ORIENTED_EDGE('',*,*,#268,.T.);
#268 = EDGE_CURVE('',#261,#261,#269,.T.);
#269 = CIRCLE('',#270,0.5);
#270 = AXIS2_PLACEMENT_3D('',#271,#272,#273);
#271 = CARTESIAN_POINT('',(-2.54,2.54,-5.1));
#272 = DIRECTION('',(0.,-0.,-1.));
#273 = DIRECTION('',(1.110223024625E-16,-1.,0.));
#274 = ORIENTED_EDGE('',*,*,#260,.F.);
#275 = ORIENTED_EDGE('',*,*,#101,.F.);
#276 = CYLINDRICAL_SURFACE('',#277,0.5);
#277 = AXIS2_PLACEMENT_3D('',#278,#279,#280);
#278 = CARTESIAN_POINT('',(-2.54,2.54,0.));
#279 = DIRECTION('',(0.,0.,1.));
#280 = DIRECTION('',(1.110223024625E-16,-1.,0.));
#281 = ADVANCED_FACE('',(#282),#301,.T.);
#282 = FACE_BOUND('',#283,.F.);
#283 = EDGE_LOOP('',(#284,#292,#299,#300));
#284 = ORIENTED_EDGE('',*,*,#285,.T.);
#285 = EDGE_CURVE('',#113,#286,#288,.T.);
#286 = VERTEX_POINT('',#287);
#287 = CARTESIAN_POINT('',(-2.04,-2.54,-5.1));
#288 = LINE('',#289,#290);
#289 = CARTESIAN_POINT('',(-2.04,-2.54,0.));
#290 = VECTOR('',#291,1.);
#291 = DIRECTION('',(0.,0.,-1.));
#292 = ORIENTED_EDGE('',*,*,#293,.T.);
#293 = EDGE_CURVE('',#286,#286,#294,.T.);
#294 = CIRCLE('',#295,0.5);
#295 = AXIS2_PLACEMENT_3D('',#296,#297,#298);
#296 = CARTESIAN_POINT('',(-2.54,-2.54,-5.1));
#297 = DIRECTION('',(0.,0.,-1.));
#298 = DIRECTION('',(1.,0.,0.));
#299 = ORIENTED_EDGE('',*,*,#285,.F.);
#300 = ORIENTED_EDGE('',*,*,#112,.F.);
#301 = CYLINDRICAL_SURFACE('',#302,0.5);
#302 = AXIS2_PLACEMENT_3D('',#303,#304,#305);
#303 = CARTESIAN_POINT('',(-2.54,-2.54,0.));
#304 = DIRECTION('',(0.,0.,1.));
#305 = DIRECTION('',(1.,0.,0.));
#306 = ADVANCED_FACE('',(#307),#326,.T.);
#307 = FACE_BOUND('',#308,.F.);
#308 = EDGE_LOOP('',(#309,#317,#324,#325));
#309 = ORIENTED_EDGE('',*,*,#310,.T.);
#310 = EDGE_CURVE('',#124,#311,#313,.T.);
#311 = VERTEX_POINT('',#312);
#312 = CARTESIAN_POINT('',(4.35,0.,-1.7));
#313 = LINE('',#314,#315);
#314 = CARTESIAN_POINT('',(4.35,0.,0.));
#315 = VECTOR('',#316,1.);
#316 = DIRECTION('',(0.,0.,-1.));
#317 = ORIENTED_EDGE('',*,*,#318,.T.);
#318 = EDGE_CURVE('',#311,#311,#319,.T.);
#319 = CIRCLE('',#320,0.65);
#320 = AXIS2_PLACEMENT_3D('',#321,#322,#323);
#321 = CARTESIAN_POINT('',(3.7,0.,-1.7));
#322 = DIRECTION('',(0.,0.,-1.));
#323 = DIRECTION('',(1.,0.,0.));
#324 = ORIENTED_EDGE('',*,*,#310,.F.);
#325 = ORIENTED_EDGE('',*,*,#123,.F.);
#326 = CYLINDRICAL_SURFACE('',#327,0.65);
#327 = AXIS2_PLACEMENT_3D('',#328,#329,#330);
#328 = CARTESIAN_POINT('',(3.7,0.,0.));
#329 = DIRECTION('',(0.,0.,1.));
#330 = DIRECTION('',(1.,0.,0.));
#331 = ADVANCED_FACE('',(#332),#351,.T.);
#332 = FACE_BOUND('',#333,.F.);
#333 = EDGE_LOOP('',(#334,#342,#349,#350));
#334 = ORIENTED_EDGE('',*,*,#335,.T.);
#335 = EDGE_CURVE('',#144,#336,#338,.T.);
#336 = VERTEX_POINT('',#337);
#337 = CARTESIAN_POINT('',(4.55,0.,12.8));
#338 = LINE('',#339,#340);
#339 = CARTESIAN_POINT('',(4.55,0.,5.8));
#340 = VECTOR('',#341,1.);
#341 = DIRECTION('',(0.,0.,1.));
#342 = ORIENTED_EDGE('',*,*,#343,.T.);
#343 = EDGE_CURVE('',#336,#336,#344,.T.);
#344 = CIRCLE('',#345,4.55);
#345 = AXIS2_PLACEMENT_3D('',#346,#347,#348);
#346 = CARTESIAN_POINT('',(0.,0.,12.8));
#347 = DIRECTION('',(0.,0.,1.));
#348 = DIRECTION('',(1.,0.,0.));
#349 = ORIENTED_EDGE('',*,*,#335,.F.);
#350 = ORIENTED_EDGE('',*,*,#143,.F.);
#351 = CYLINDRICAL_SURFACE('',#352,4.55);
#352 = AXIS2_PLACEMENT_3D('',#353,#354,#355);
#353 = CARTESIAN_POINT('',(0.,0.,5.8));
#354 = DIRECTION('',(-0.,-0.,-1.));
#355 = DIRECTION('',(1.,0.,0.));
#356 = ADVANCED_FACE('',(#357),#360,.T.);
#357 = FACE_BOUND('',#358,.T.);
#358 = EDGE_LOOP('',(#359));
#359 = ORIENTED_EDGE('',*,*,#168,.T.);
#360 = PLANE('',#361);
#361 = AXIS2_PLACEMENT_3D('',#362,#363,#364);
#362 = CARTESIAN_POINT('',(2.54,-2.54,-5.1));
#363 = DIRECTION('',(0.,0.,-1.));
#364 = DIRECTION('',(2.22044604925E-16,-1.,0.));
#365 = ADVANCED_FACE('',(#366),#369,.T.);
#366 = FACE_BOUND('',#367,.T.);
#367 = EDGE_LOOP('',(#368));
#368 = ORIENTED_EDGE('',*,*,#193,.T.);
#369 = PLANE('',#370);
#370 = AXIS2_PLACEMENT_3D('',#371,#372,#373);
#371 = CARTESIAN_POINT('',(2.54,2.54,-5.1));
#372 = DIRECTION('',(0.,0.,-1.));
#373 = DIRECTION('',(1.,1.224646799147E-16,0.));
#374 = ADVANCED_FACE('',(#375),#378,.T.);
#375 = FACE_BOUND('',#376,.T.);
#376 = EDGE_LOOP('',(#377));
#377 = ORIENTED_EDGE('',*,*,#218,.T.);
#378 = PLANE('',#379);
#379 = AXIS2_PLACEMENT_3D('',#380,#381,#382);
#380 = CARTESIAN_POINT('',(-8.546500828371E-17,4.255667768225E-18,-1.7)
  );
#381 = DIRECTION('',(-0.,-0.,-1.));
#382 = DIRECTION('',(-1.,0.,0.));
#383 = ADVANCED_FACE('',(#384),#387,.T.);
#384 = FACE_BOUND('',#385,.T.);
#385 = EDGE_LOOP('',(#386));
#386 = ORIENTED_EDGE('',*,*,#243,.T.);
#387 = PLANE('',#388);
#388 = AXIS2_PLACEMENT_3D('',#389,#390,#391);
#389 = CARTESIAN_POINT('',(-3.7,-1.049506141473E-16,-1.7));
#390 = DIRECTION('',(-0.,-0.,-1.));
#391 = DIRECTION('',(-1.,0.,0.));
#392 = ADVANCED_FACE('',(#393),#396,.T.);
#393 = FACE_BOUND('',#394,.T.);
#394 = EDGE_LOOP('',(#395));
#395 = ORIENTED_EDGE('',*,*,#268,.T.);
#396 = PLANE('',#397);
#397 = AXIS2_PLACEMENT_3D('',#398,#399,#400);
#398 = CARTESIAN_POINT('',(-2.54,2.54,-5.1));
#399 = DIRECTION('',(-0.,0.,-1.));
#400 = DIRECTION('',(-1.110223024625E-16,1.,0.));
#401 = ADVANCED_FACE('',(#402),#405,.T.);
#402 = FACE_BOUND('',#403,.T.);
#403 = EDGE_LOOP('',(#404));
#404 = ORIENTED_EDGE('',*,*,#293,.T.);
#405 = PLANE('',#406);
#406 = AXIS2_PLACEMENT_3D('',#407,#408,#409);
#407 = CARTESIAN_POINT('',(-2.54,-2.54,-5.1));
#408 = DIRECTION('',(-0.,-0.,-1.));
#409 = DIRECTION('',(-1.,0.,0.));
#410 = ADVANCED_FACE('',(#411),#414,.T.);
#411 = FACE_BOUND('',#412,.T.);
#412 = EDGE_LOOP('',(#413));
#413 = ORIENTED_EDGE('',*,*,#318,.T.);
#414 = PLANE('',#415);
#415 = AXIS2_PLACEMENT_3D('',#416,#417,#418);
#416 = CARTESIAN_POINT('',(3.7,-7.207945711507E-17,-1.7));
#417 = DIRECTION('',(-0.,-0.,-1.));
#418 = DIRECTION('',(-1.,0.,0.));
#419 = ADVANCED_FACE('',(#420),#423,.T.);
#420 = FACE_BOUND('',#421,.T.);
#421 = EDGE_LOOP('',(#422));
#422 = ORIENTED_EDGE('',*,*,#343,.T.);
#423 = PLANE('',#424);
#424 = AXIS2_PLACEMENT_3D('',#425,#426,#427);
#425 = CARTESIAN_POINT('',(-4.508044392987E-16,4.153344878609E-16,12.8)
  );
#426 = DIRECTION('',(0.,0.,1.));
#427 = DIRECTION('',(1.,0.,0.));
#428 = ( GEOMETRIC_REPRESENTATION_CONTEXT(3) 
GLOBAL_UNCERTAINTY_ASSIGNED_CONTEXT((#432)) GLOBAL_UNIT_ASSIGNED_CONTEXT
((#429,#430,#431)) REPRESENTATION_CONTEXT('Context #1',
  '3D Context with UNIT and UNCERTAINTY') );
#429 = ( LENGTH_UNIT() NAMED_UNIT(*) SI_UNIT(.MILLI.,.METRE.) );
#430 = ( NAMED_UNIT(*) PLANE_ANGLE_UNIT() SI_UNIT($,.RADIAN.) );
#431 = ( NAMED_UNIT(*) SI_UNIT($,.STERADIAN.) SOLID_ANGLE_UNIT() );
#432 = UNCERTAINTY_MEASURE_WITH_UNIT(LENGTH_MEASURE(1.E-07),#429,
  'distance_accuracy_value','confusion accuracy');
#433 = PRODUCT_RELATED_PRODUCT_CATEGORY('part',$,(#7));
#434 = MECHANICAL_DESIGN_GEOMETRIC_PRESENTATION_REPRESENTATION('',(#435,
    #443,#451,#458,#466,#473,#480,#487,#494,#501,#508,#515,#522,#529,
    #536,#543,#550,#557,#564),#428);
#435 = STYLED_ITEM('color',(#436),#17);
#436 = PRESENTATION_STYLE_ASSIGNMENT((#437));
#437 = SURFACE_STYLE_USAGE(.BOTH.,#438);
#438 = SURFACE_SIDE_STYLE('',(#439));
#439 = SURFACE_STYLE_FILL_AREA(#440);
#440 = FILL_AREA_STYLE('',(#441));
#441 = FILL_AREA_STYLE_COLOUR('',#442);
#442 = DRAUGHTING_PRE_DEFINED_COLOUR('red');
#443 = STYLED_ITEM('color',(#444),#50);
#444 = PRESENTATION_STYLE_ASSIGNMENT((#445));
#445 = SURFACE_STYLE_USAGE(.BOTH.,#446);
#446 = SURFACE_SIDE_STYLE('',(#447));
#447 = SURFACE_STYLE_FILL_AREA(#448);
#448 = FILL_AREA_STYLE('',(#449));
#449 = FILL_AREA_STYLE_COLOUR('',#450);
#450 = COLOUR_RGB('',0.800000011921,0.800000011921,0.800000011921);
#451 = STYLED_ITEM('color',(#452),#136);
#452 = PRESENTATION_STYLE_ASSIGNMENT((#453));
#453 = SURFACE_STYLE_USAGE(.BOTH.,#454);
#454 = SURFACE_SIDE_STYLE('',(#455));
#455 = SURFACE_STYLE_FILL_AREA(#456);
#456 = FILL_AREA_STYLE('',(#457));
#457 = FILL_AREA_STYLE_COLOUR('',#442);
#458 = STYLED_ITEM('color',(#459),#156);
#459 = PRESENTATION_STYLE_ASSIGNMENT((#460));
#460 = SURFACE_STYLE_USAGE(.BOTH.,#461);
#461 = SURFACE_SIDE_STYLE('',(#462));
#462 = SURFACE_STYLE_FILL_AREA(#463);
#463 = FILL_AREA_STYLE('',(#464));
#464 = FILL_AREA_STYLE_COLOUR('',#465);
#465 = COLOUR_RGB('',1.,1.,0.498039215803);
#466 = STYLED_ITEM('color',(#467),#181);
#467 = PRESENTATION_STYLE_ASSIGNMENT((#468));
#468 = SURFACE_STYLE_USAGE(.BOTH.,#469);
#469 = SURFACE_SIDE_STYLE('',(#470));
#470 = SURFACE_STYLE_FILL_AREA(#471);
#471 = FILL_AREA_STYLE('',(#472));
#472 = FILL_AREA_STYLE_COLOUR('',#465);
#473 = STYLED_ITEM('color',(#474),#206);
#474 = PRESENTATION_STYLE_ASSIGNMENT((#475));
#475 = SURFACE_STYLE_USAGE(.BOTH.,#476);
#476 = SURFACE_SIDE_STYLE('',(#477));
#477 = SURFACE_STYLE_FILL_AREA(#478);
#478 = FILL_AREA_STYLE('',(#479));
#479 = FILL_AREA_STYLE_COLOUR('',#450);
#480 = STYLED_ITEM('color',(#481),#231);
#481 = PRESENTATION_STYLE_ASSIGNMENT((#482));
#482 = SURFACE_STYLE_USAGE(.BOTH.,#483);
#483 = SURFACE_SIDE_STYLE('',(#484));
#484 = SURFACE_STYLE_FILL_AREA(#485);
#485 = FILL_AREA_STYLE('',(#486));
#486 = FILL_AREA_STYLE_COLOUR('',#450);
#487 = STYLED_ITEM('color',(#488),#256);
#488 = PRESENTATION_STYLE_ASSIGNMENT((#489));
#489 = SURFACE_STYLE_USAGE(.BOTH.,#490);
#490 = SURFACE_SIDE_STYLE('',(#491));
#491 = SURFACE_STYLE_FILL_AREA(#492);
#492 = FILL_AREA_STYLE('',(#493));
#493 = FILL_AREA_STYLE_COLOUR('',#465);
#494 = STYLED_ITEM('color',(#495),#281);
#495 = PRESENTATION_STYLE_ASSIGNMENT((#496));
#496 = SURFACE_STYLE_USAGE(.BOTH.,#497);
#497 = SURFACE_SIDE_STYLE('',(#498));
#498 = SURFACE_STYLE_FILL_AREA(#499);
#499 = FILL_AREA_STYLE('',(#500));
#500 = FILL_AREA_STYLE_COLOUR('',#465);
#501 = STYLED_ITEM('color',(#502),#306);
#502 = PRESENTATION_STYLE_ASSIGNMENT((#503));
#503 = SURFACE_STYLE_USAGE(.BOTH.,#504);
#504 = SURFACE_SIDE_STYLE('',(#505));
#505 = SURFACE_STYLE_FILL_AREA(#506);
#506 = FILL_AREA_STYLE('',(#507));
#507 = FILL_AREA_STYLE_COLOUR('',#450);
#508 = STYLED_ITEM('color',(#509),#331);
#509 = PRESENTATION_STYLE_ASSIGNMENT((#510));
#510 = SURFACE_STYLE_USAGE(.BOTH.,#511);
#511 = SURFACE_SIDE_STYLE('',(#512));
#512 = SURFACE_STYLE_FILL_AREA(#513);
#513 = FILL_AREA_STYLE('',(#514));
#514 = FILL_AREA_STYLE_COLOUR('',#442);
#515 = STYLED_ITEM('color',(#516),#356);
#516 = PRESENTATION_STYLE_ASSIGNMENT((#517));
#517 = SURFACE_STYLE_USAGE(.BOTH.,#518);
#518 = SURFACE_SIDE_STYLE('',(#519));
#519 = SURFACE_STYLE_FILL_AREA(#520);
#520 = FILL_AREA_STYLE('',(#521));
#521 = FILL_AREA_STYLE_COLOUR('',#465);
#522 = STYLED_ITEM('color',(#523),#365);
#523 = PRESENTATION_STYLE_ASSIGNMENT((#524));
#524 = SURFACE_STYLE_USAGE(.BOTH.,#525);
#525 = SURFACE_SIDE_STYLE('',(#526));
#526 = SURFACE_STYLE_FILL_AREA(#527);
#527 = FILL_AREA_STYLE('',(#528));
#528 = FILL_AREA_STYLE_COLOUR('',#465);
#529 = STYLED_ITEM('color',(#530),#374);
#530 = PRESENTATION_STYLE_ASSIGNMENT((#531));
#531 = SURFACE_STYLE_USAGE(.BOTH.,#532);
#532 = SURFACE_SIDE_STYLE('',(#533));
#533 = SURFACE_STYLE_FILL_AREA(#534);
#534 = FILL_AREA_STYLE('',(#535));
#535 = FILL_AREA_STYLE_COLOUR('',#450);
#536 = STYLED_ITEM('color',(#537),#383);
#537 = PRESENTATION_STYLE_ASSIGNMENT((#538));
#538 = SURFACE_STYLE_USAGE(.BOTH.,#539);
#539 = SURFACE_SIDE_STYLE('',(#540));
#540 = SURFACE_STYLE_FILL_AREA(#541);
#541 = FILL_AREA_STYLE('',(#542));
#542 = FILL_AREA_STYLE_COLOUR('',#450);
#543 = STYLED_ITEM('color',(#544),#392);
#544 = PRESENTATION_STYLE_ASSIGNMENT((#545));
#545 = SURFACE_STYLE_USAGE(.BOTH.,#546);
#546 = SURFACE_SIDE_STYLE('',(#547));
#547 = SURFACE_STYLE_FILL_AREA(#548);
#548 = FILL_AREA_STYLE('',(#549));
#549 = FILL_AREA_STYLE_COLOUR('',#465);
#550 = STYLED_ITEM('color',(#551),#401);
#551 = PRESENTATION_STYLE_ASSIGNMENT((#552));
#552 = SURFACE_STYLE_USAGE(.BOTH.,#553);
#553 = SURFACE_SIDE_STYLE('',(#554));
#554 = SURFACE_STYLE_FILL_AREA(#555);
#555 = FILL_AREA_STYLE('',(#556));
#556 = FILL_AREA_STYLE_COLOUR('',#465);
#557 = STYLED_ITEM('color',(#558),#410);
#558 = PRESENTATION_STYLE_ASSIGNMENT((#559));
#559 = SURFACE_STYLE_USAGE(.BOTH.,#560);
#560 = SURFACE_SIDE_STYLE('',(#561));
#561 = SURFACE_STYLE_FILL_AREA(#562);
#562 = FILL_AREA_STYLE('',(#563));
#563 = FILL_AREA_STYLE_COLOUR('',#450);
#564 = STYLED_ITEM('color',(#565),#419);
#565 = PRESENTATION_STYLE_ASSIGNMENT((#566));
#566 = SURFACE_STYLE_USAGE(.BOTH.,#567);
#567 = SURFACE_SIDE_STYLE('',(#568));
#568 = SURFACE_STYLE_FILL_AREA(#569);
#569 = FILL_AREA_STYLE('',(#570));
#570 = FILL_AREA_STYLE_COLOUR('',#442);
ENDSEC;
END-ISO-10303-21;
